IMG/.Xil/Vivado-9492-fy7245m220402/hw_ila_data_2/zip_work/waveform.vcd
$date
        2024-Apr-22 17:11:21
$end
$version
        Vivado v2018.3 (64-bit)
$end
$timescale
        1ps
$end
$scope module dut $end
$var reg 2 " zynq_i/system_ila_0/inst/net_slot_0_axi_ar_cnt [1:0] $end
$var reg 32 $ zynq_i/system_ila_0/inst/net_slot_0_axi_araddr [31:0] $end
$var reg 8 D zynq_i/system_ila_0/inst/net_slot_0_axi_arlen [7:0] $end
$var reg 3 L zynq_i/system_ila_0/inst/net_slot_0_axi_arsize [2:0] $end
$var reg 2 O zynq_i/system_ila_0/inst/net_slot_0_axi_aw_cnt [1:0] $end
$var reg 32 Q zynq_i/system_ila_0/inst/net_slot_0_axi_awaddr [31:0] $end
$var reg 8 q zynq_i/system_ila_0/inst/net_slot_0_axi_awlen [7:0] $end
$var reg 3 y zynq_i/system_ila_0/inst/net_slot_0_axi_awsize [2:0] $end
$var reg 2 | zynq_i/system_ila_0/inst/net_slot_0_axi_b_cnt [1:0] $end
$var reg 2 ~ zynq_i/system_ila_0/inst/net_slot_0_axi_r_cnt [1:0] $end
$var reg 64 "" zynq_i/system_ila_0/inst/net_slot_0_axi_rdata [63:0] $end
$var reg 2 b" zynq_i/system_ila_0/inst/net_slot_0_axi_rresp [1:0] $end
$var reg 64 d" zynq_i/system_ila_0/inst/net_slot_0_axi_wdata [63:0] $end
$var reg 1 F# zynq_i/system_ila_0/inst/net_slot_0_axi_awvalid $end
$var reg 2 G# zynq_i/system_ila_0/inst/net_slot_0_axi_aw_ctrl [1:0] $end
$var reg 1 I# zynq_i/system_ila_0/inst/net_slot_0_axi_awready $end
$var reg 3 J# zynq_i/system_ila_0/inst/net_slot_0_axi_w_ctrl [2:0] $end
$var reg 1 M# zynq_i/system_ila_0/inst/net_slot_0_axi_wvalid $end
$var reg 1 N# zynq_i/system_ila_0/inst/net_slot_0_axi_wready $end
$var reg 1 O# zynq_i/system_ila_0/inst/net_slot_0_axi_wlast $end
$var reg 2 P# zynq_i/system_ila_0/inst/net_slot_0_axi_b_ctrl [1:0] $end
$var reg 1 R# zynq_i/system_ila_0/inst/net_slot_0_axi_bvalid $end
$var reg 1 S# zynq_i/system_ila_0/inst/net_slot_0_axi_bready $end
$var reg 1 T# zynq_i/system_ila_0/inst/net_slot_0_axi_arvalid $end
$var reg 2 U# zynq_i/system_ila_0/inst/net_slot_0_axi_ar_ctrl [1:0] $end
$var reg 1 W# zynq_i/system_ila_0/inst/net_slot_0_axi_arready $end
$var reg 3 X# zynq_i/system_ila_0/inst/net_slot_0_axi_r_ctrl [2:0] $end
$var reg 1 [# zynq_i/system_ila_0/inst/net_slot_0_axi_rvalid $end
$var reg 1 \# zynq_i/system_ila_0/inst/net_slot_0_axi_rready $end
$var reg 1 ]# zynq_i/system_ila_0/inst/net_slot_0_axi_rlast $end
$var reg 24 ^# zynq_i/system_ila_0/inst/net_slot_1_axis_tdata [23:0] $end
$var reg 3 v# zynq_i/system_ila_0/inst/net_slot_1_axis_tkeep [2:0] $end
$var reg 1 y# zynq_i/system_ila_0/inst/net_slot_1_axis_tuser $end
$var reg 1 z# zynq_i/system_ila_0/inst/net_slot_1_axis_tvalid $end
$var reg 1 {# zynq_i/system_ila_0/inst/net_slot_1_axis_tready $end
$var reg 1 |# zynq_i/system_ila_0/inst/net_slot_1_axis_tlast $end
$var reg 1 }# zynq_i/system_ila_0/inst/SLOT_2_VIDEO_TIMING_active_video_1 $end
$var reg 1 ~# zynq_i/system_ila_0/inst/SLOT_2_VIDEO_TIMING_hblank_1 $end
$var reg 1 !$ zynq_i/system_ila_0/inst/SLOT_2_VIDEO_TIMING_hsync_1 $end
$var reg 1 "$ zynq_i/system_ila_0/inst/SLOT_2_VIDEO_TIMING_vblank_1 $end
$var reg 1 #$ zynq_i/system_ila_0/inst/SLOT_2_VIDEO_TIMING_vsync_1 $end
$var reg 3 $$ AR_Channel__i2_s0___axi_vdma_0_M_AXI_MM2S_ [2:0] $end
$var reg 3 '$ AW_Channel__i2_s0___axi_vdma_0_M_AXI_MM2S_ [2:0] $end
$var reg 3 *$ B_Channel__i2_s0___axi_vdma_0_M_AXI_MM2S_ [2:0] $end
$var reg 3 -$ Interface__i2_s0___axi_vdma_0_M_AXI_MM2S_ [2:0] $end
$var reg 3 0$ Interface__i2_s1___axi_vdma_0_M_AXIS_MM2S_ [2:0] $end
$var reg 3 3$ R_Channel__i2_s0___axi_vdma_0_M_AXI_MM2S_ [2:0] $end
$var reg 3 6$ T_Channel__i2_s1___axi_vdma_0_M_AXIS_MM2S_ [2:0] $end
$var reg 3 9$ W_Channel__i2_s0___axi_vdma_0_M_AXI_MM2S_ [2:0] $end
$var reg 16 <$ slot_0___axi_vdma_0_M_AXI_MM2S___Read_Transactions_0 [15:0] $end
$var reg 16 L$ slot_0___axi_vdma_0_M_AXI_MM2S___Read_Transactions_1 [15:0] $end
$var reg 16 \$ slot_0___axi_vdma_0_M_AXI_MM2S___Read_Transactions_2 [15:0] $end
$var reg 1 l$ _TRIGGER $end
$var reg 1 m$ _WINDOW $end
$var reg 1 n$ _GAP $end
$upscope $end
$enddefinitions $end
#0
$dumpvars
b10 "
b0 $
b0 D
b0 L
b0 O
b0 Q
b0 q
b11 y
b0 |
b10 ~
b11111111000000000000000011111111000000000000000011111111 ""
b0 b"
b0 d"
0F#
b0 G#
0I#
b0 J#
0M#
0N#
0O#
b0 P#
0R#
0S#
0T#
b10 U#
1W#
b111 X#
1[#
1\#
1]#
b111111110000000000000000 ^#
b111 v#
0y#
1z#
0{#
0|#
0}#
0~#
0!$
1"$
1#$
b0 $$
b11 '$
b11 *$
b1 -$
b0 0$
b111 3$
b0 6$
b100 9$
b0 <$
b0 L$
b0 \$
0l$
1m$
0n$
$end
#1
b1 "
b1 ~
b110 X#
0[#
1{#
b0 -$
b1 0$
b0 3$
b1 6$
#4
0{#
b0 0$
b0 6$
#5
1{#
b1 0$
b1 6$
#8
0{#
b0 0$
b0 6$
#9
1{#
b1 0$
b1 6$
#12
0{#
b0 0$
b0 6$
#13
1{#
b1 0$
b1 6$
#16
0{#
b0 0$
b0 6$
#17
1{#
b1 0$
b1 6$
#20
0{#
b0 0$
b0 6$
#21
b1111111100000000000000001111111100000000000000001111111100000000 ""
b11 X#
1[#
0]#
1{#
b1 -$
b1 0$
b1 3$
b1 6$
#22
b1001010010100010111000000 $
b111 D
b11 L
b111111110000000000000000111111110000000000000000 ""
1T#
b11 U#
b10 $$
b1 <$
#23
b10 "
b0 $
b0 D
b0 L
b10 ~
b11111111000000000000000011111111000000000000000011111111 ""
0T#
b10 U#
b0 $$
#24
b1111111100000000000000001111111100000000000000001111111100000000 ""
0{#
b0 0$
b0 6$
#25
b111111110000000000000000111111110000000000000000 ""
1{#
b1 0$
b1 6$
#26
b11111111000000000000000011111111000000000000000011111111 ""
#27
b1111111100000000000000001111111100000000000000001111111100000000 ""
#28
b111111110000000000000000111111110000000000000000 ""
b111 X#
1]#
0{#
b0 0$
b111 3$
b0 6$
#29
b1 "
b1 ~
b110 X#
0[#
1{#
b0 -$
b1 0$
b0 3$
b1 6$
#32
0{#
b0 0$
b0 6$
#33
1{#
b1 0$
b1 6$
#36
0{#
b0 0$
b0 6$
#37
1{#
b1 0$
b1 6$
#40
0{#
b0 0$
b0 6$
#41
1{#
b1 0$
b1 6$
#44
0{#
b0 0$
b0 6$
#45
1{#
b1 0$
b1 6$
#48
0{#
b0 0$
b0 6$
#49
1{#
b1 0$
b1 6$
#50
b1001010010100011000000000 $
b111 D
b11 L
1T#
b11 U#
b10 $$
b1 -$
b1 L$
#51
b10 "
b0 $
b0 D
b0 L
b10 ~
b11111111000000000000000011111111000000000000000011111111 ""
0T#
b10 U#
b11 X#
1[#
0]#
0{#
b0 $$
b0 0$
b1 3$
b0 6$
#52
b1111111100000000000000001111111100000000000000001111111100000000 ""
1{#
b1 0$
b1 6$
#53
b111111110000000000000000111111110000000000000000 ""
#54
b11111111000000000000000011111111000000000000000011111111 ""
#55
b1111111100000000000000001111111100000000000000001111111100000000 ""
0{#
b0 0$
b0 6$
#56
b111111110000000000000000111111110000000000000000 ""
1{#
b1 0$
b1 6$
#57
b11111111000000000000000011111111000000000000000011111111 ""
#58
b1111111100000000000000001111111100000000000000001111111100000000 ""
b111 X#
1]#
b111 3$
#59
b1 "
b1 ~
b110 X#
0[#
0{#
b0 -$
b0 0$
b0 3$
b0 6$
b0 <$
#60
1{#
b1 0$
b1 6$
#63
0{#
b0 0$
b0 6$
#64
1{#
b1 0$
b1 6$
#67
0{#
b0 0$
b0 6$
#68
1{#
b1 0$
b1 6$
#71
0{#
b0 0$
b0 6$
#72
1{#
b1 0$
b1 6$
#75
0{#
b0 0$
b0 6$
#76
1{#
b1 0$
b1 6$
#78
b1001010010100011001000000 $
b111 D
b11 L
1T#
b11 U#
b10 $$
b1 -$
b10 <$
#79
b10 "
b0 $
b0 D
b0 L
b10 ~
b111111110000000000000000111111110000000000000000 ""
0T#
b10 U#
b11 X#
1[#
0]#
0{#
b0 $$
b0 0$
b1 3$
b0 6$
#80
b11111111000000000000000011111111000000000000000011111111 ""
1{#
b1 0$
b1 6$
#81
b1111111100000000000000001111111100000000000000001111111100000000 ""
#82
b111111110000000000000000111111110000000000000000 ""
#83
b11111111000000000000000011111111000000000000000011111111 ""
0{#
b0 0$
b0 6$
#84
b1111111100000000000000001111111100000000000000001111111100000000 ""
1{#
b1 0$
b1 6$
#85
b111111110000000000000000111111110000000000000000 ""
#86
b11111111000000000000000011111111000000000000000011111111 ""
b111 X#
1]#
b111 3$
#87
b1 "
b1 ~
b110 X#
0[#
0{#
b0 -$
b0 0$
b0 3$
b0 6$
b0 L$
#88
1{#
b1 0$
b1 6$
#91
0{#
b0 0$
b0 6$
#92
1{#
b1 0$
b1 6$
#95
0{#
b0 0$
b0 6$
#96
1{#
b1 0$
b1 6$
#99
0{#
b0 0$
b0 6$
#100
1{#
b1 0$
b1 6$
#103
0{#
b0 0$
b0 6$
#104
1{#
b1 0$
b1 6$
#107
b1111111100000000000000001111111100000000000000001111111100000000 ""
b11 X#
1[#
0]#
0{#
b1 -$
b0 0$
b1 3$
b0 6$
#108
b1001010010100011010000000 $
b111 D
b11 L
b111111110000000000000000111111110000000000000000 ""
1T#
b11 U#
1{#
b10 $$
b1 0$
b1 6$
b10 L$
#109
b10 "
b0 $
b0 D
b0 L
b10 ~
b11111111000000000000000011111111000000000000000011111111 ""
0T#
b10 U#
b0 $$
#110
b1111111100000000000000001111111100000000000000001111111100000000 ""
#111
b111111110000000000000000111111110000000000000000 ""
0{#
b0 0$
b0 6$
#112
b11111111000000000000000011111111000000000000000011111111 ""
1{#
b1 0$
b1 6$
#113
b1111111100000000000000001111111100000000000000001111111100000000 ""
#114
b111111110000000000000000111111110000000000000000 ""
b111 X#
1]#
b111 3$
#115
b1 "
b1 ~
b110 X#
0[#
0{#
b0 -$
b0 0$
b0 3$
b0 6$
b0 <$
#116
1{#
b1 0$
b1 6$
#119
0{#
b0 0$
b0 6$
#120
1{#
b1 0$
b1 6$
#123
0{#
b0 0$
b0 6$
#124
1{#
b1 0$
b1 6$
#127
0{#
b0 0$
b0 6$
#128
1{#
b1 0$
b1 6$
#130
0{#
b0 0$
b0 6$
#131
1{#
b1 0$
b1 6$
#134
0{#
b0 0$
b0 6$
#135
b1001010010100011011000000 $
b111 D
b11 L
1T#
b11 U#
1{#
b10 $$
b1 -$
b1 0$
b1 6$
b11 <$
#136
b10 "
b0 $
b0 D
b0 L
b10 ~
0T#
b10 U#
b0 $$
b0 -$
#137
b11111111000000000000000011111111000000000000000011111111 ""
b11 X#
1[#
0]#
b1 -$
b1 3$
#138
b1111111100000000000000001111111100000000000000001111111100000000 ""
0{#
b0 0$
b0 6$
#139
b111111110000000000000000111111110000000000000000 ""
1{#
b1 0$
b1 6$
#140
b11111111000000000000000011111111000000000000000011111111 ""
#141
b1111111100000000000000001111111100000000000000001111111100000000 ""
#142
b111111110000000000000000111111110000000000000000 ""
0{#
b0 0$
b0 6$
#143
b11111111000000000000000011111111000000000000000011111111 ""
1{#
b1 0$
b1 6$
#144
b1111111100000000000000001111111100000000000000001111111100000000 ""
b111 X#
1]#
b111 3$
#145
b1 "
b1 ~
b110 X#
0[#
b0 -$
b0 3$
b0 L$
#146
0{#
b0 0$
b0 6$
#147
1{#
b1 0$
b1 6$
#150
0{#
b0 0$
b0 6$
#151
1{#
b1 0$
b1 6$
#154
0{#
b0 0$
b0 6$
#155
1{#
b1 0$
b1 6$
#158
0{#
b0 0$
b0 6$
#159
1{#
b1 0$
b1 6$
#162
0{#
b0 0$
b0 6$
#163
b1001010010100011100000000 $
b111 D
b11 L
1T#
b11 U#
1{#
b10 $$
b1 -$
b1 0$
b1 6$
b11 L$
#164
b10 "
b0 $
b0 D
b0 L
b10 ~
b111111110000000000000000111111110000000000000000 ""
0T#
b10 U#
b11 X#
1[#
0]#
b0 $$
b1 3$
#165
b11111111000000000000000011111111000000000000000011111111 ""
#166
b1111111100000000000000001111111100000000000000001111111100000000 ""
0{#
b0 0$
b0 6$
#167
b111111110000000000000000111111110000000000000000 ""
1{#
b1 0$
b1 6$
#168
b11111111000000000000000011111111000000000000000011111111 ""
#169
b1111111100000000000000001111111100000000000000001111111100000000 ""
#170
b111111110000000000000000111111110000000000000000 ""
0{#
b0 0$
b0 6$
#171
b11111111000000000000000011111111000000000000000011111111 ""
b111 X#
1]#
1{#
b1 0$
b111 3$
b1 6$
#172
b1 "
b1 ~
b110 X#
0[#
b0 -$
b0 3$
b0 <$
#174
0{#
b0 0$
b0 6$
#175
1{#
b1 0$
b1 6$
#178
0{#
b0 0$
b0 6$
#179
1{#
b1 0$
b1 6$
#182
0{#
b0 0$
b0 6$
#183
1{#
b1 0$
b1 6$
#186
0{#
b0 0$
b0 6$
#187
1{#
b1 0$
b1 6$
#190
0{#
b0 0$
b0 6$
#191
1{#
b1 0$
b1 6$
#192
b1111111100000000000000001111111100000000000000001111111100000000 ""
b11 X#
1[#
0]#
b1 -$
b1 3$
#193
b1001010010100011101000000 $
b111 D
b11 L
b111111110000000000000000111111110000000000000000 ""
1T#
b11 U#
b10 $$
b100 <$
#194
b10 "
b0 $
b0 D
b0 L
b10 ~
b11111111000000000000000011111111000000000000000011111111 ""
0T#
b10 U#
0{#
b0 $$
b0 0$
b0 6$
#195
b1111111100000000000000001111111100000000000000001111111100000000 ""
1{#
b1 0$
b1 6$
#196
b111111110000000000000000111111110000000000000000 ""
#197
b11111111000000000000000011111111000000000000000011111111 ""
#198
b1111111100000000000000001111111100000000000000001111111100000000 ""
0{#
b0 0$
b0 6$
#199
b111111110000000000000000111111110000000000000000 ""
b111 X#
1]#
1{#
b1 0$
b111 3$
b1 6$
#200
b1 "
b1 ~
b110 X#
0[#
b0 -$
b0 3$
b0 L$
#202
0{#
b0 0$
b0 6$
#203
1{#
b1 0$
b1 6$
#205
0{#
b0 0$
b0 6$
#206
1{#
b1 0$
b1 6$
#209
0{#
b0 0$
b0 6$
#210
1{#
b1 0$
b1 6$
#213
0{#
b0 0$
b0 6$
#214
1{#
b1 0$
b1 6$
#217
0{#
b0 0$
b0 6$
#218
1{#
b1 0$
b1 6$
#221
b1001010010100011110000000 $
b111 D
b11 L
1T#
b11 U#
0{#
b10 $$
b1 -$
b0 0$
b0 6$
b100 L$
#222
b10 "
b0 $
b0 D
b0 L
b10 ~
b11111111000000000000000011111111000000000000000011111111 ""
0T#
b10 U#
b11 X#
1[#
0]#
1{#
b0 $$
b1 0$
b1 3$
b1 6$
#223
b1111111100000000000000001111111100000000000000001111111100000000 ""
#224
b111111110000000000000000111111110000000000000000 ""
#225
b11111111000000000000000011111111000000000000000011111111 ""
0{#
b0 0$
b0 6$
#226
b1111111100000000000000001111111100000000000000001111111100000000 ""
1{#
b1 0$
b1 6$
#227
b111111110000000000000000111111110000000000000000 ""
#228
b11111111000000000000000011111111000000000000000011111111 ""
#229
b1111111100000000000000001111111100000000000000001111111100000000 ""
b111 X#
1]#
0{#
b0 0$
b111 3$
b0 6$
#230
b1 "
b1 ~
b110 X#
0[#
1{#
b0 -$
b1 0$
b0 3$
b1 6$
b0 <$
#233
0{#
b0 0$
b0 6$
#234
1{#
b1 0$
b1 6$
#237
0{#
b0 0$
b0 6$
#238
1{#
b1 0$
b1 6$
#241
0{#
b0 0$
b0 6$
#242
1{#
b1 0$
b1 6$
#245
0{#
b0 0$
b0 6$
#246
1{#
b1 0$
b1 6$
#249
b1001010010100011111000000 $
b111 D
b11 L
1T#
b11 U#
0{#
b10 $$
b1 -$
b0 0$
b0 6$
#250
b10 "
b0 $
b0 D
b0 L
b10 ~
b111111110000000000000000111111110000000000000000 ""
0T#
b10 U#
b11 X#
1[#
0]#
1{#
b0 $$
b1 0$
b1 3$
b1 6$
#251
b11111111000000000000000011111111000000000000000011111111 ""
#252
b1111111100000000000000001111111100000000000000001111111100000000 ""
#253
b111111110000000000000000111111110000000000000000 ""
0{#
b0 0$
b0 6$
#254
b11111111000000000000000011111111000000000000000011111111 ""
1{#
b1 0$
b1 6$
#255
b1111111100000000000000001111111100000000000000001111111100000000 ""
#256
b111111110000000000000000111111110000000000000000 ""
#257
b11111111000000000000000011111111000000000000000011111111 ""
b111 X#
1]#
0{#
b0 0$
b111 3$
b0 6$
#258
b1 "
b1 ~
b110 X#
0[#
1{#
b0 -$
b1 0$
b0 3$
b1 6$
b0 L$
#261
0{#
b0 0$
b0 6$
#262
1{#
b1 0$
b1 6$
#265
0{#
b0 0$
b0 6$
#266
1{#
b1 0$
b1 6$
#269
0{#
b0 0$
b0 6$
#270
1{#
b1 0$
b1 6$
#273
0{#
b0 0$
b0 6$
#274
1{#
b1 0$
b1 6$
#277
0{#
b0 0$
b0 6$
#278
1{#
b1 0$
b1 6$
#279
b1001010010100100000000000 $
b111 D
b11 L
1T#
b11 U#
b10 $$
b1 -$
#280
b10 "
b0 $
b0 D
b0 L
b10 ~
0T#
b10 U#
0{#
b0 $$
b0 -$
b0 0$
b0 6$
#281
1{#
b1 0$
b1 6$
#284
0{#
b0 0$
b0 6$
#285
1{#
b1 0$
b1 6$
#288
0{#
b0 0$
b0 6$
#289
1{#
b1 0$
b1 6$
#292
0{#
b0 0$
b0 6$
#293
1{#
b1 0$
b1 6$
#296
0{#
b0 0$
b0 6$
#297
1{#
b1 0$
b1 6$
#300
0{#
b0 0$
b0 6$
#301
1{#
b1 0$
b1 6$
#304
0{#
b0 0$
b0 6$
#305
1{#
b1 0$
b1 6$
#307
b1001010010100100001000000 $
b111 D
b11 L
b1111111100000000000000001111111100000000000000001111111100000000 ""
1T#
b11 U#
b11 X#
1[#
0]#
b10 $$
b1 -$
b1 3$
b1 \$
#308
b11 "
b0 $
b0 D
b0 L
b11 ~
b111111110000000000000000111111110000000000000000 ""
0T#
b10 U#
0{#
b0 $$
b0 0$
b0 6$
#309
b11111111000000000000000011111111000000000000000011111111 ""
1{#
b1 0$
b1 6$
#310
b1111111100000000000000001111111100000000000000001111111100000000 ""
#311
b111111110000000000000000111111110000000000000000 ""
#312
b11111111000000000000000011111111000000000000000011111111 ""
0{#
b0 0$
b0 6$
#313
b1111111100000000000000001111111100000000000000001111111100000000 ""
1{#
b1 0$
b1 6$
#314
b111111110000000000000000111111110000000000000000 ""
b111 X#
1]#
b111 3$
#315
b10 "
b10 ~
b11111111000000000000000011111111000000000000000011111111 ""
b11 X#
0]#
b1 3$
#316
b1111111100000000000000001111111100000000000000001111111100000000 ""
0{#
b0 0$
b0 6$
#317
b111111110000000000000000111111110000000000000000 ""
1{#
b1 0$
b1 6$
#318
b11111111000000000000000011111111000000000000000011111111 ""
#319
b1111111100000000000000001111111100000000000000001111111100000000 ""
#320
b111111110000000000000000111111110000000000000000 ""
0{#
b0 0$
b0 6$
#321
b11111111000000000000000011111111000000000000000011111111 ""
1{#
b1 0$
b1 6$
#322
b1111111100000000000000001111111100000000000000001111111100000000 ""
b111 X#
1]#
b111 3$
#323
b1 "
b1 ~
b110 X#
0[#
b0 -$
b0 3$
#324
0{#
b0 0$
b0 6$
#325
1{#
b1 0$
b1 6$
#328
0{#
b0 0$
b0 6$
#329
1{#
b1 0$
b1 6$
#332
0{#
b0 0$
b0 6$
#333
1{#
b1 0$
b1 6$
#335
b1001010010100100010000000 $
b111 D
b11 L
1T#
b11 U#
b10 $$
b1 -$
#336
b10 "
b0 $
b0 D
b0 L
b10 ~
b111111110000000000000000111111110000000000000000 ""
0T#
b10 U#
b11 X#
1[#
0]#
0{#
b0 $$
b0 0$
b1 3$
b0 6$
#337
b11111111000000000000000011111111000000000000000011111111 ""
1{#
b1 0$
b1 6$
#338
b1111111100000000000000001111111100000000000000001111111100000000 ""
#339
b111111110000000000000000111111110000000000000000 ""
#340
b11111111000000000000000011111111000000000000000011111111 ""
0{#
b0 0$
b0 6$
#341
b1111111100000000000000001111111100000000000000001111111100000000 ""
1{#
b1 0$
b1 6$
#342
b111111110000000000000000111111110000000000000000 ""
#343
b11111111000000000000000011111111000000000000000011111111 ""
b111 X#
1]#
b111 3$
#344
b1 "
b1 ~
b110 X#
0[#
0{#
b0 -$
b0 0$
b0 3$
b0 6$
#345
1{#
b1 0$
b1 6$
#348
0{#
b0 0$
b0 6$
#349
1{#
b1 0$
b1 6$
#352
0{#
b0 0$
b0 6$
#353
1{#
b1 0$
b1 6$
#356
0{#
b0 0$
b0 6$
#357
1{#
b1 0$
b1 6$
#359
0{#
b0 0$
b0 6$
#360
1{#
b1 0$
b1 6$
#363
0{#
b0 0$
b0 6$
#364
b1111111100000000000000001111111100000000000000001111111100000000 ""
b11 X#
1[#
0]#
1{#
b1 -$
b1 0$
b1 3$
b1 6$
#365
b1001010010100100011000000 $
b111 D
b11 L
b111111110000000000000000111111110000000000000000 ""
1T#
b11 U#
b10 $$
#366
b10 "
b0 $
b0 D
b0 L
b10 ~
b11111111000000000000000011111111000000000000000011111111 ""
0T#
b10 U#
b0 $$
#367
b1111111100000000000000001111111100000000000000001111111100000000 ""
0{#
b0 0$
b0 6$
#368
b111111110000000000000000111111110000000000000000 ""
1{#
b1 0$
b1 6$
#369
b11111111000000000000000011111111000000000000000011111111 ""
#370
b1111111100000000000000001111111100000000000000001111111100000000 ""
#371
b111111110000000000000000111111110000000000000000 ""
b111 X#
1]#
0{#
b0 0$
b111 3$
b0 6$
#372
b1 "
b1 ~
b110 X#
0[#
1{#
b0 -$
b1 0$
b0 3$
b1 6$
#375
0{#
b0 0$
b0 6$
#376
1{#
b1 0$
b1 6$
#379
0{#
b0 0$
b0 6$
#380
1{#
b1 0$
b1 6$
#383
0{#
b0 0$
b0 6$
#384
1{#
b1 0$
b1 6$
#387
0{#
b0 0$
b0 6$
#388
1{#
b1 0$
b1 6$
#391
0{#
b0 0$
b0 6$
#392
1{#
b1 0$
b1 6$
#393
b1001010010100100100000000 $
b111 D
b11 L
1T#
b11 U#
b10 $$
b1 -$
#394
b10 "
b0 $
b0 D
b0 L
b10 ~
b11111111000000000000000011111111000000000000000011111111 ""
0T#
b10 U#
b11 X#
1[#
0]#
b0 $$
b1 3$
#395
b1111111100000000000000001111111100000000000000001111111100000000 ""
0{#
b0 0$
b0 6$
#396
b111111110000000000000000111111110000000000000000 ""
1{#
b1 0$
b1 6$
#397
b11111111000000000000000011111111000000000000000011111111 ""
#398
b1111111100000000000000001111111100000000000000001111111100000000 ""
#399
b111111110000000000000000111111110000000000000000 ""
0{#
b0 0$
b0 6$
#400
b11111111000000000000000011111111000000000000000011111111 ""
1{#
b1 0$
b1 6$
#401
b1111111100000000000000001111111100000000000000001111111100000000 ""
b111 X#
1]#
b111 3$
#402
b1 "
b1 ~
b110 X#
0[#
b0 -$
b0 3$
#403
0{#
b0 0$
b0 6$
#404
1{#
b1 0$
b1 6$
#407
0{#
b0 0$
b0 6$
#408
1{#
b1 0$
b1 6$
#411
0{#
b0 0$
b0 6$
#412
1{#
b1 0$
b1 6$
#415
0{#
b0 0$
b0 6$
#416
1{#
b1 0$
b1 6$
#419
0{#
b0 0$
b0 6$
#420
b1001010010100100101000000 $
b111 D
b11 L
1T#
b11 U#
1{#
b10 $$
b1 -$
b1 0$
b1 6$
#421
b10 "
b0 $
b0 D
b0 L
b10 ~
0T#
b10 U#
b0 $$
b0 -$
#422
b111111110000000000000000111111110000000000000000 ""
b11 X#
1[#
0]#
b1 -$
b1 3$
#423
b11111111000000000000000011111111000000000000000011111111 ""
0{#
b0 0$
b0 6$
#424
b1111111100000000000000001111111100000000000000001111111100000000 ""
1{#
b1 0$
b1 6$
#425
b111111110000000000000000111111110000000000000000 ""
#426
b11111111000000000000000011111111000000000000000011111111 ""
#427
b1111111100000000000000001111111100000000000000001111111100000000 ""
0{#
b0 0$
b0 6$
#428
b111111110000000000000000111111110000000000000000 ""
1{#
b1 0$
b1 6$
#429
b11111111000000000000000011111111000000000000000011111111 ""
b111 X#
1]#
b111 3$
#430
b1 "
b1 ~
b110 X#
0[#
b0 -$
b0 3$
#431
0{#
b0 0$
b0 6$
#432
1{#
b1 0$
b1 6$
#434
0{#
b0 0$
b0 6$
#435
1{#
b1 0$
b1 6$
#438
0{#
b0 0$
b0 6$
#439
1{#
b1 0$
b1 6$
#442
0{#
b0 0$
b0 6$
#443
1{#
b1 0$
b1 6$
#446
0{#
b0 0$
b0 6$
#447
1{#
b1 0$
b1 6$
#449
b1111111100000000000000001111111100000000000000001111111100000000 ""
b11 X#
1[#
0]#
b1 -$
b1 3$
#450
b111111110000000000000000111111110000000000000000 ""
0{#
b0 0$
b0 6$
#451
b1001010010100100110000000 $
b111 D
b11 L
b11111111000000000000000011111111000000000000000011111111 ""
1T#
b11 U#
1{#
b10 $$
b1 0$
b1 6$
#452
b10 "
b0 $
b0 D
b0 L
b10 ~
b1111111100000000000000001111111100000000000000001111111100000000 ""
0T#
b10 U#
b0 $$
#453
b111111110000000000000000111111110000000000000000 ""
#454
b11111111000000000000000011111111000000000000000011111111 ""
0{#
b0 0$
b0 6$
#455
b1111111100000000000000001111111100000000000000001111111100000000 ""
1{#
b1 0$
b1 6$
#456
b111111110000000000000000111111110000000000000000 ""
b111 X#
1]#
b111 3$
#457
b1 "
b1 ~
b110 X#
0[#
b0 -$
b0 3$
#458
0{#
b0 0$
b0 6$
#459
1{#
b1 0$
b1 6$
#462
0{#
b0 0$
b0 6$
#463
1{#
b1 0$
b1 6$
#466
0{#
b0 0$
b0 6$
#467
1{#
b1 0$
b1 6$
#470
0{#
b0 0$
b0 6$
#471
1{#
b1 0$
b1 6$
#474
0{#
b0 0$
b0 6$
#475
1{#
b1 0$
b1 6$
#478
b1001010010100100111000000 $
b111 D
b11 L
1T#
b11 U#
0{#
b10 $$
b1 -$
b0 0$
b0 6$
#479
b10 "
b0 $
b0 D
b0 L
b10 ~
0T#
b10 U#
1{#
b0 $$
b0 -$
b1 0$
b1 6$
#480
b11111111000000000000000011111111000000000000000011111111 ""
b11 X#
1[#
0]#
b1 -$
b1 3$
#481
b1111111100000000000000001111111100000000000000001111111100000000 ""
#482
b111111110000000000000000111111110000000000000000 ""
0{#
b0 0$
b0 6$
#483
b11111111000000000000000011111111000000000000000011111111 ""
1{#
b1 0$
b1 6$
#484
b1111111100000000000000001111111100000000000000001111111100000000 ""
#485
b111111110000000000000000111111110000000000000000 ""
#486
b11111111000000000000000011111111000000000000000011111111 ""
0{#
b0 0$
b0 6$
#487
b1111111100000000000000001111111100000000000000001111111100000000 ""
b111 X#
1]#
1{#
b1 0$
b111 3$
b1 6$
#488
b1 "
b1 ~
b110 X#
0[#
b0 -$
b0 3$
#490
0{#
b0 0$
b0 6$
#491
1{#
b1 0$
b1 6$
#494
0{#
b0 0$
b0 6$
#495
1{#
b1 0$
b1 6$
#498
0{#
b0 0$
b0 6$
#499
1{#
b1 0$
b1 6$
#502
0{#
b0 0$
b0 6$
#503
1{#
b1 0$
b1 6$
#505
0{#
b0 0$
b0 6$
#506
b1001010010100101000000000 $
b111 D
b11 L
1T#
b11 U#
1{#
b10 $$
b1 -$
b1 0$
b1 6$
#507
b10 "
b0 $
b0 D
b0 L
b10 ~
b111111110000000000000000111111110000000000000000 ""
0T#
b10 U#
b11 X#
1[#
0]#
b0 $$
b1 3$
#508
b11111111000000000000000011111111000000000000000011111111 ""
#509
b1111111100000000000000001111111100000000000000001111111100000000 ""
0{#
b0 0$
b0 6$
#510
b111111110000000000000000111111110000000000000000 ""
1{#
b1 0$
b1 6$
#511
b11111111000000000000000011111111000000000000000011111111 ""
#512
b1111111100000000000000001111111100000000000000001111111100000000 ""
1~#
0#$
1l$
#513
b111111110000000000000000111111110000000000000000 ""
0{#
b0 0$
b0 6$
#514
b11111111000000000000000011111111000000000000000011111111 ""
b111 X#
1]#
1{#
b1 0$
b111 3$
b1 6$
#515
b1 "
b1 ~
b110 X#
0[#
b0 -$
b0 3$
#517
0{#
b0 0$
b0 6$
#518
1{#
b1 0$
b1 6$
#521
0{#
b0 0$
b0 6$
#522
1{#
b1 0$
b1 6$
#525
0{#
b0 0$
b0 6$
#526
1{#
b1 0$
b1 6$
#529
0{#
b0 0$
b0 6$
#530
1{#
b1 0$
b1 6$
#533
0{#
b0 0$
b0 6$
#534
1{#
b1 0$
b1 6$
#535
b1111111100000000000000001111111100000000000000001111111100000000 ""
b11 X#
1[#
0]#
b1 -$
b1 3$
#536
b1001010010100101001000000 $
b111 D
b11 L
b111111110000000000000000111111110000000000000000 ""
1T#
b11 U#
b10 $$
#537
b10 "
b0 $
b0 D
b0 L
b10 ~
b11111111000000000000000011111111000000000000000011111111 ""
0T#
b10 U#
0{#
b0 $$
b0 0$
b0 6$
