IMG/.Xil/Vivado-8504-fy7245m220402/hw_ila_data_2/zip_work/waveform.vcd
$date
        2024-Apr-22 16:02:22
$end
$version
        Vivado v2018.3 (64-bit)
$end
$timescale
        1ps
$end
$scope module dut $end
$var reg 2 " zynq_i/system_ila_0/inst/net_slot_0_axi_ar_cnt [1:0] $end
$var reg 32 $ zynq_i/system_ila_0/inst/net_slot_0_axi_araddr [31:0] $end
$var reg 8 D zynq_i/system_ila_0/inst/net_slot_0_axi_arlen [7:0] $end
$var reg 3 L zynq_i/system_ila_0/inst/net_slot_0_axi_arsize [2:0] $end
$var reg 2 O zynq_i/system_ila_0/inst/net_slot_0_axi_aw_cnt [1:0] $end
$var reg 32 Q zynq_i/system_ila_0/inst/net_slot_0_axi_awaddr [31:0] $end
$var reg 8 q zynq_i/system_ila_0/inst/net_slot_0_axi_awlen [7:0] $end
$var reg 3 y zynq_i/system_ila_0/inst/net_slot_0_axi_awsize [2:0] $end
$var reg 2 | zynq_i/system_ila_0/inst/net_slot_0_axi_b_cnt [1:0] $end
$var reg 2 ~ zynq_i/system_ila_0/inst/net_slot_0_axi_r_cnt [1:0] $end
$var reg 64 "" zynq_i/system_ila_0/inst/net_slot_0_axi_rdata [63:0] $end
$var reg 2 b" zynq_i/system_ila_0/inst/net_slot_0_axi_rresp [1:0] $end
$var reg 64 d" zynq_i/system_ila_0/inst/net_slot_0_axi_wdata [63:0] $end
$var reg 2 F# zynq_i/system_ila_0/inst/net_slot_0_axi_aw_ctrl [1:0] $end
$var reg 1 H# zynq_i/system_ila_0/inst/net_slot_0_axi_awvalid $end
$var reg 1 I# zynq_i/system_ila_0/inst/net_slot_0_axi_awready $end
$var reg 3 J# zynq_i/system_ila_0/inst/net_slot_0_axi_w_ctrl [2:0] $end
$var reg 1 M# zynq_i/system_ila_0/inst/net_slot_0_axi_wvalid $end
$var reg 1 N# zynq_i/system_ila_0/inst/net_slot_0_axi_wready $end
$var reg 1 O# zynq_i/system_ila_0/inst/net_slot_0_axi_wlast $end
$var reg 2 P# zynq_i/system_ila_0/inst/net_slot_0_axi_b_ctrl [1:0] $end
$var reg 1 R# zynq_i/system_ila_0/inst/net_slot_0_axi_bvalid $end
$var reg 1 S# zynq_i/system_ila_0/inst/net_slot_0_axi_bready $end
$var reg 2 T# zynq_i/system_ila_0/inst/net_slot_0_axi_ar_ctrl [1:0] $end
$var reg 1 V# zynq_i/system_ila_0/inst/net_slot_0_axi_arvalid $end
$var reg 1 W# zynq_i/system_ila_0/inst/net_slot_0_axi_arready $end
$var reg 3 X# zynq_i/system_ila_0/inst/net_slot_0_axi_r_ctrl [2:0] $end
$var reg 1 [# zynq_i/system_ila_0/inst/net_slot_0_axi_rvalid $end
$var reg 1 \# zynq_i/system_ila_0/inst/net_slot_0_axi_rready $end
$var reg 1 ]# zynq_i/system_ila_0/inst/net_slot_0_axi_rlast $end
$var reg 24 ^# zynq_i/system_ila_0/inst/net_slot_1_axis_tdata [23:0] $end
$var reg 3 v# zynq_i/system_ila_0/inst/net_slot_1_axis_tkeep [2:0] $end
$var reg 1 y# zynq_i/system_ila_0/inst/net_slot_1_axis_tuser $end
$var reg 1 z# zynq_i/system_ila_0/inst/net_slot_1_axis_tvalid $end
$var reg 1 {# zynq_i/system_ila_0/inst/net_slot_1_axis_tready $end
$var reg 1 |# zynq_i/system_ila_0/inst/net_slot_1_axis_tlast $end
$var reg 3 }# AR_Channel__i2_s0___axi_vdma_0_M_AXI_MM2S_ [2:0] $end
$var reg 3 "$ AW_Channel__i2_s0___axi_vdma_0_M_AXI_MM2S_ [2:0] $end
$var reg 3 %$ B_Channel__i2_s0___axi_vdma_0_M_AXI_MM2S_ [2:0] $end
$var reg 3 ($ Interface__i2_s0___axi_vdma_0_M_AXI_MM2S_ [2:0] $end
$var reg 3 +$ Interface__i2_s1___axi_vdma_0_M_AXIS_MM2S_ [2:0] $end
$var reg 3 .$ R_Channel__i2_s0___axi_vdma_0_M_AXI_MM2S_ [2:0] $end
$var reg 3 1$ T_Channel__i2_s1___axi_vdma_0_M_AXIS_MM2S_ [2:0] $end
$var reg 3 4$ W_Channel__i2_s0___axi_vdma_0_M_AXI_MM2S_ [2:0] $end
$var reg 16 7$ slot_0___axi_vdma_0_M_AXI_MM2S___Read_Transactions_0 [15:0] $end
$var reg 16 G$ slot_0___axi_vdma_0_M_AXI_MM2S___Read_Transactions_1 [15:0] $end
$var reg 16 W$ slot_0___axi_vdma_0_M_AXI_MM2S___Read_Transactions_2 [15:0] $end
$var reg 1 g$ _TRIGGER $end
$var reg 1 h$ _WINDOW $end
$var reg 1 i$ _GAP $end
$upscope $end
$enddefinitions $end
#0
$dumpvars
b1 "
b0 $
b0 D
b0 L
b0 O
b0 Q
b0 q
b11 y
b0 |
b1 ~
b111111110000000000000000111111110000000000000000 ""
b0 b"
b0 d"
b0 F#
0H#
0I#
b0 J#
0M#
0N#
0O#
b0 P#
0R#
0S#
b10 T#
0V#
1W#
b110 X#
0[#
1\#
1]#
b111111110000000000000000 ^#
b111 v#
0y#
1z#
1{#
0|#
b0 }#
b11 "$
b11 %$
b0 ($
b0 +$
b0 .$
b0 1$
b100 4$
b0 7$
b0 G$
b0 W$
0g$
1h$
0i$
$end
#1
b1 +$
b1 1$
#2
0{#
b0 +$
b0 1$
#3
1{#
b1 +$
b1 1$
#6
0{#
b0 +$
b0 1$
#7
1{#
b1 +$
b1 1$
#10
0{#
b0 +$
b0 1$
#11
1{#
b1 +$
b1 1$
#12
b1000101100001001101000000 $
b111 D
b11 L
b11 T#
1V#
b10 }#
b1 ($
b1 7$
#13
b10 "
b0 $
b0 D
b0 L
b10 ~
b11111111000000000000000011111111000000000000000011111111 ""
b10 T#
0V#
b11 X#
1[#
0]#
0{#
b0 }#
b0 +$
b1 .$
b0 1$
#14
b1111111100000000000000001111111100000000000000001111111100000000 ""
1{#
b1 +$
b1 1$
#15
b111111110000000000000000111111110000000000000000 ""
#16
b11111111000000000000000011111111000000000000000011111111 ""
#17
b1111111100000000000000001111111100000000000000001111111100000000 ""
0{#
b0 +$
b0 1$
#18
b111111110000000000000000111111110000000000000000 ""
1{#
b1 +$
b1 1$
#19
b11111111000000000000000011111111000000000000000011111111 ""
#20
b1111111100000000000000001111111100000000000000001111111100000000 ""
b111 X#
1]#
b111 .$
#21
b1 "
b1 ~
b110 X#
0[#
0{#
b0 ($
b0 +$
b0 .$
b0 1$
#22
1{#
b1 +$
b1 1$
#25
0{#
b0 +$
b0 1$
#26
1{#
b1 +$
b1 1$
#29
0{#
b0 +$
b0 1$
#30
1{#
b1 +$
b1 1$
#33
0{#
b0 +$
b0 1$
#34
1{#
b1 +$
b1 1$
#37
0{#
b0 +$
b0 1$
#38
1{#
b1 +$
b1 1$
#40
b1000101100001001110000000 $
b111 D
b11 L
b11 T#
1V#
b10 }#
b1 ($
b1 G$
#41
b10 "
b0 $
b0 D
b0 L
b10 ~
b111111110000000000000000111111110000000000000000 ""
b10 T#
0V#
b11 X#
1[#
0]#
0{#
b0 }#
b0 +$
b1 .$
b0 1$
#42
b11111111000000000000000011111111000000000000000011111111 ""
1{#
b1 +$
b1 1$
#43
b1111111100000000000000001111111100000000000000001111111100000000 ""
#44
b111111110000000000000000111111110000000000000000 ""
#45
b11111111000000000000000011111111000000000000000011111111 ""
0{#
b0 +$
b0 1$
#46
b1111111100000000000000001111111100000000000000001111111100000000 ""
1{#
b1 +$
b1 1$
#47
b111111110000000000000000111111110000000000000000 ""
#48
b11111111000000000000000011111111000000000000000011111111 ""
b111 X#
1]#
0{#
b0 +$
b111 .$
b0 1$
#49
b1 "
b1 ~
b110 X#
0[#
1{#
b0 ($
b1 +$
b0 .$
b1 1$
b0 7$
#52
0{#
b0 +$
b0 1$
#53
1{#
b1 +$
b1 1$
#56
0{#
b0 +$
b0 1$
#57
1{#
b1 +$
b1 1$
#60
0{#
b0 +$
b0 1$
#61
1{#
b1 +$
b1 1$
#64
0{#
b0 +$
b0 1$
#65
1{#
b1 +$
b1 1$
#68
0{#
b0 +$
b0 1$
#69
b1111111100000000000000001111111100000000000000001111111100000000 ""
b11 X#
1[#
0]#
1{#
b1 ($
b1 +$
b1 .$
b1 1$
#70
b1000101100001001111000000 $
b111 D
b11 L
b111111110000000000000000111111110000000000000000 ""
b11 T#
1V#
b10 }#
b10 7$
#71
b10 "
b0 $
b0 D
b0 L
b10 ~
b11111111000000000000000011111111000000000000000011111111 ""
b10 T#
0V#
b0 }#
#72
b1111111100000000000000001111111100000000000000001111111100000000 ""
0{#
b0 +$
b0 1$
#73
b111111110000000000000000111111110000000000000000 ""
1{#
b1 +$
b1 1$
#74
b11111111000000000000000011111111000000000000000011111111 ""
#75
b1111111100000000000000001111111100000000000000001111111100000000 ""
#76
b111111110000000000000000111111110000000000000000 ""
b111 X#
1]#
0{#
b0 +$
b111 .$
b0 1$
#77
b1 "
b1 ~
b110 X#
0[#
1{#
b0 ($
b1 +$
b0 .$
b1 1$
b0 G$
#79
0{#
b0 +$
b0 1$
#80
1{#
b1 +$
b1 1$
#83
0{#
b0 +$
b0 1$
#84
1{#
b1 +$
b1 1$
#87
0{#
b0 +$
b0 1$
#88
1{#
b1 +$
b1 1$
#91
0{#
b0 +$
b0 1$
#92
1{#
b1 +$
b1 1$
#95
0{#
b0 +$
b0 1$
#96
1{#
b1 +$
b1 1$
#98
b1000101100001010000000000 $
b111 D
b11 L
b11 T#
1V#
b10 }#
b1 ($
b10 G$
#99
b10 "
b0 $
b0 D
b0 L
b10 ~
b11111111000000000000000011111111000000000000000011111111 ""
b10 T#
0V#
b11 X#
1[#
0]#
0{#
b0 }#
b0 +$
b1 .$
b0 1$
#100
b1111111100000000000000001111111100000000000000001111111100000000 ""
1{#
b1 +$
b1 1$
#101
b111111110000000000000000111111110000000000000000 ""
#102
b11111111000000000000000011111111000000000000000011111111 ""
#103
b1111111100000000000000001111111100000000000000001111111100000000 ""
0{#
b0 +$
b0 1$
#104
b111111110000000000000000111111110000000000000000 ""
1{#
b1 +$
b1 1$
#105
b11111111000000000000000011111111000000000000000011111111 ""
#106
b1111111100000000000000001111111100000000000000001111111100000000 ""
b111 X#
1]#
b111 .$
#107
b1 "
b1 ~
b110 X#
0[#
0{#
b0 ($
b0 +$
b0 .$
b0 1$
b0 7$
#108
1{#
b1 +$
b1 1$
#111
0{#
b0 +$
b0 1$
#112
1{#
b1 +$
b1 1$
#114
0{#
b0 +$
b0 1$
#115
1{#
b1 +$
b1 1$
#118
0{#
b0 +$
b0 1$
#119
1{#
b1 +$
b1 1$
#122
0{#
b0 +$
b0 1$
#123
1{#
b1 +$
b1 1$
#126
b1000101100001010001000000 $
b111 D
b11 L
b11 T#
1V#
0{#
b10 }#
b1 ($
b0 +$
b0 1$
b11 7$
#127
b10 "
b0 $
b0 D
b0 L
b10 ~
b111111110000000000000000111111110000000000000000 ""
b10 T#
0V#
b11 X#
1[#
0]#
1{#
b0 }#
b1 +$
b1 .$
b1 1$
#128
b11111111000000000000000011111111000000000000000011111111 ""
#129
b1111111100000000000000001111111100000000000000001111111100000000 ""
#130
b111111110000000000000000111111110000000000000000 ""
0{#
b0 +$
b0 1$
#131
b11111111000000000000000011111111000000000000000011111111 ""
1{#
b1 +$
b1 1$
#132
b1111111100000000000000001111111100000000000000001111111100000000 ""
#133
b111111110000000000000000111111110000000000000000 ""
#134
b11111111000000000000000011111111000000000000000011111111 ""
b111 X#
1]#
0{#
b0 +$
b111 .$
b0 1$
#135
b1 "
b1 ~
b110 X#
0[#
1{#
b0 ($
b1 +$
b0 .$
b1 1$
b0 G$
#138
0{#
b0 +$
b0 1$
#139
1{#
b1 +$
b1 1$
#142
0{#
b0 +$
b0 1$
#143
1{#
b1 +$
b1 1$
#145
0{#
b0 +$
b0 1$
#146
1{#
b1 +$
b1 1$
#149
0{#
b0 +$
b0 1$
#150
1{#
b1 +$
b1 1$
#153
0{#
b0 +$
b0 1$
#154
1{#
b1 +$
b1 1$
#155
b1111111100000000000000001111111100000000000000001111111100000000 ""
b11 X#
1[#
0]#
b1 ($
b1 .$
#156
b1000101100001010010000000 $
b111 D
b11 L
b111111110000000000000000111111110000000000000000 ""
b11 T#
1V#
b10 }#
b11 G$
#157
b10 "
b0 $
b0 D
b0 L
b10 ~
b11111111000000000000000011111111000000000000000011111111 ""
b10 T#
0V#
0{#
b0 }#
b0 +$
b0 1$
#158
b1111111100000000000000001111111100000000000000001111111100000000 ""
1{#
b1 +$
b1 1$
#159
b111111110000000000000000111111110000000000000000 ""
#160
b11111111000000000000000011111111000000000000000011111111 ""
#161
b1111111100000000000000001111111100000000000000001111111100000000 ""
0{#
b0 +$
b0 1$
#162
b111111110000000000000000111111110000000000000000 ""
b111 X#
1]#
1{#
b1 +$
b111 .$
b1 1$
#163
b1 "
b1 ~
b110 X#
0[#
b0 ($
b0 .$
b0 7$
#165
0{#
b0 +$
b0 1$
#166
1{#
b1 +$
b1 1$
#169
0{#
b0 +$
b0 1$
#170
1{#
b1 +$
b1 1$
#173
0{#
b0 +$
b0 1$
#174
1{#
b1 +$
b1 1$
#177
0{#
b0 +$
b0 1$
#178
1{#
b1 +$
b1 1$
#180
0{#
b0 +$
b0 1$
#181
1{#
b1 +$
b1 1$
#184
b1000101100001010011000000 $
b111 D
b11 L
b11 T#
1V#
0{#
b10 }#
b1 ($
b0 +$
b0 1$
b100 7$
#185
b10 "
b0 $
b0 D
b0 L
b10 ~
b11111111000000000000000011111111000000000000000011111111 ""
b10 T#
0V#
b11 X#
1[#
0]#
1{#
b0 }#
b1 +$
b1 .$
b1 1$
#186
b1111111100000000000000001111111100000000000000001111111100000000 ""
#187
b111111110000000000000000111111110000000000000000 ""
#188
b11111111000000000000000011111111000000000000000011111111 ""
0{#
b0 +$
b0 1$
#189
b1111111100000000000000001111111100000000000000001111111100000000 ""
1{#
b1 +$
b1 1$
#190
b111111110000000000000000111111110000000000000000 ""
#191
b11111111000000000000000011111111000000000000000011111111 ""
#192
b1111111100000000000000001111111100000000000000001111111100000000 ""
b111 X#
1]#
0{#
b0 +$
b111 .$
b0 1$
#193
b1 "
b1 ~
b110 X#
0[#
1{#
b0 ($
b1 +$
b0 .$
b1 1$
b0 G$
#196
0{#
b0 +$
b0 1$
#197
1{#
b1 +$
b1 1$
#200
0{#
b0 +$
b0 1$
#201
1{#
b1 +$
b1 1$
#204
0{#
b0 +$
b0 1$
#205
1{#
b1 +$
b1 1$
#208
0{#
b0 +$
b0 1$
#209
1{#
b1 +$
b1 1$
#211
0{#
b0 +$
b0 1$
#212
b1000101100001010100000000 $
b111 D
b11 L
b11 T#
1V#
1{#
b10 }#
b1 ($
b1 +$
b1 1$
b100 G$
#213
b10 "
b0 $
b0 D
b0 L
b10 ~
b111111110000000000000000111111110000000000000000 ""
b10 T#
0V#
b11 X#
1[#
0]#
b0 }#
b1 .$
#214
b11111111000000000000000011111111000000000000000011111111 ""
#215
b1111111100000000000000001111111100000000000000001111111100000000 ""
0{#
b0 +$
b0 1$
#216
b111111110000000000000000111111110000000000000000 ""
1{#
b1 +$
b1 1$
#217
b11111111000000000000000011111111000000000000000011111111 ""
#218
b1111111100000000000000001111111100000000000000001111111100000000 ""
#219
b111111110000000000000000111111110000000000000000 ""
0{#
b0 +$
b0 1$
#220
b11111111000000000000000011111111000000000000000011111111 ""
b111 X#
1]#
1{#
b1 +$
b111 .$
b1 1$
#221
b1 "
b1 ~
b110 X#
0[#
b0 ($
b0 .$
b0 7$
#223
0{#
b0 +$
b0 1$
#224
1{#
b1 +$
b1 1$
#227
0{#
b0 +$
b0 1$
#228
1{#
b1 +$
b1 1$
#231
0{#
b0 +$
b0 1$
#232
1{#
b1 +$
b1 1$
#235
0{#
b0 +$
b0 1$
#236
1{#
b1 +$
b1 1$
#239
0{#
b0 +$
b0 1$
#240
1{#
b1 +$
b1 1$
#241
b1111111100000000000000001111111100000000000000001111111100000000 ""
b11 X#
1[#
0]#
b1 ($
b1 .$
#242
b1000101100001010101000000 $
b111 D
b11 L
b111111110000000000000000111111110000000000000000 ""
b11 T#
1V#
b10 }#
b101 7$
#243
b10 "
b0 $
b0 D
b0 L
b10 ~
b11111111000000000000000011111111000000000000000011111111 ""
b10 T#
0V#
0{#
b0 }#
b0 +$
b0 1$
#244
b1111111100000000000000001111111100000000000000001111111100000000 ""
1{#
b1 +$
b1 1$
#245
b111111110000000000000000111111110000000000000000 ""
#246
b11111111000000000000000011111111000000000000000011111111 ""
0{#
b0 +$
b0 1$
#247
b1111111100000000000000001111111100000000000000001111111100000000 ""
1{#
b1 +$
b1 1$
#248
b111111110000000000000000111111110000000000000000 ""
b111 X#
1]#
b111 .$
#249
b1 "
b1 ~
b110 X#
0[#
b0 ($
b0 .$
b0 G$
#250
0{#
b0 +$
b0 1$
#251
1{#
b1 +$
b1 1$
#254
0{#
b0 +$
b0 1$
#255
1{#
b1 +$
b1 1$
#258
0{#
b0 +$
b0 1$
#259
1{#
b1 +$
b1 1$
#262
0{#
b0 +$
b0 1$
#263
1{#
b1 +$
b1 1$
#266
0{#
b0 +$
b0 1$
#267
1{#
b1 +$
b1 1$
#270
b1000101100001010110000000 $
b111 D
b11 L
b11 T#
1V#
0{#
b10 }#
b1 ($
b0 +$
b0 1$
b101 G$
#271
b10 "
b0 $
b0 D
b0 L
b10 ~
b11111111000000000000000011111111000000000000000011111111 ""
b10 T#
0V#
b11 X#
1[#
0]#
1{#
b0 }#
b1 +$
b1 .$
b1 1$
#272
b1111111100000000000000001111111100000000000000001111111100000000 ""
#273
b111111110000000000000000111111110000000000000000 ""
#274
b11111111000000000000000011111111000000000000000011111111 ""
0{#
b0 +$
b0 1$
#275
b1111111100000000000000001111111100000000000000001111111100000000 ""
1{#
b1 +$
b1 1$
#276
b111111110000000000000000111111110000000000000000 ""
#277
b11111111000000000000000011111111000000000000000011111111 ""
#278
b1111111100000000000000001111111100000000000000001111111100000000 ""
b111 X#
1]#
0{#
b0 +$
b111 .$
b0 1$
#279
b1 "
b1 ~
b110 X#
0[#
1{#
b0 ($
b1 +$
b0 .$
b1 1$
b0 7$
#281
0{#
b0 +$
b0 1$
#282
1{#
b1 +$
b1 1$
#285
0{#
b0 +$
b0 1$
#286
1{#
b1 +$
b1 1$
#289
0{#
b0 +$
b0 1$
#290
1{#
b1 +$
b1 1$
#293
0{#
b0 +$
b0 1$
#294
1{#
b1 +$
b1 1$
#297
0{#
b0 +$
b0 1$
#298
b1000101100001010111000000 $
b111 D
b11 L
b11 T#
1V#
1{#
b10 }#
b1 ($
b1 +$
b1 1$
b110 7$
#299
b10 "
b0 $
b0 D
b0 L
b10 ~
b111111110000000000000000111111110000000000000000 ""
b10 T#
0V#
b11 X#
1[#
0]#
b0 }#
b1 .$
#300
b11111111000000000000000011111111000000000000000011111111 ""
#301
b1111111100000000000000001111111100000000000000001111111100000000 ""
0{#
b0 +$
b0 1$
#302
b111111110000000000000000111111110000000000000000 ""
1{#
b1 +$
b1 1$
#303
b11111111000000000000000011111111000000000000000011111111 ""
#304
b1111111100000000000000001111111100000000000000001111111100000000 ""
#305
b111111110000000000000000111111110000000000000000 ""
0{#
b0 +$
b0 1$
#306
b11111111000000000000000011111111000000000000000011111111 ""
b111 X#
1]#
1{#
b1 +$
b111 .$
b1 1$
#307
b1 "
b1 ~
b110 X#
0[#
b0 ($
b0 .$
b0 G$
#309
0{#
b0 +$
b0 1$
#310
1{#
b1 +$
b1 1$
#312
0{#
b0 +$
b0 1$
#313
1{#
b1 +$
b1 1$
#316
0{#
b0 +$
b0 1$
#317
1{#
b1 +$
b1 1$
#320
0{#
b0 +$
b0 1$
#321
1{#
b1 +$
b1 1$
#324
0{#
b0 +$
b0 1$
#325
1{#
b1 +$
b1 1$
#327
b1111111100000000000000001111111100000000000000001111111100000000 ""
b11 X#
1[#
0]#
b1 ($
b1 .$
#328
b111111110000000000000000111111110000000000000000 ""
0{#
b0 +$
b0 1$
#329
b1000101100001011000000000 $
b111 D
b11 L
b11111111000000000000000011111111000000000000000011111111 ""
b11 T#
1V#
1{#
b10 }#
b1 +$
b1 1$
b110 G$
#330
b10 "
b0 $
b0 D
b0 L
b10 ~
b1111111100000000000000001111111100000000000000001111111100000000 ""
b10 T#
0V#
b0 }#
#331
b111111110000000000000000111111110000000000000000 ""
#332
b11111111000000000000000011111111000000000000000011111111 ""
0{#
b0 +$
b0 1$
#333
b1111111100000000000000001111111100000000000000001111111100000000 ""
1{#
b1 +$
b1 1$
#334
b111111110000000000000000111111110000000000000000 ""
b111 X#
1]#
b111 .$
#335
b1 "
b1 ~
b110 X#
0[#
b0 ($
b0 .$
b0 7$
#336
0{#
b0 +$
b0 1$
#337
1{#
b1 +$
b1 1$
#340
0{#
b0 +$
b0 1$
#341
1{#
b1 +$
b1 1$
#344
0{#
b0 +$
b0 1$
#345
1{#
b1 +$
b1 1$
#347
0{#
b0 +$
b0 1$
#348
1{#
b1 +$
b1 1$
#351
0{#
b0 +$
b0 1$
#352
1{#
b1 +$
b1 1$
#355
0{#
b0 +$
b0 1$
#356
1{#
b1 +$
b1 1$
#357
b1000101100001011001000000 $
b111 D
b11 L
b11 T#
1V#
b10 }#
b1 ($
#358
b10 "
b0 $
b0 D
b0 L
b10 ~
b11111111000000000000000011111111000000000000000011111111 ""
b10 T#
0V#
b11 X#
1[#
0]#
b0 }#
b1 .$
#359
b1111111100000000000000001111111100000000000000001111111100000000 ""
0{#
b0 +$
b0 1$
#360
b111111110000000000000000111111110000000000000000 ""
1{#
b1 +$
b1 1$
#361
b11111111000000000000000011111111000000000000000011111111 ""
#362
b1111111100000000000000001111111100000000000000001111111100000000 ""
#363
b111111110000000000000000111111110000000000000000 ""
0{#
b0 +$
b0 1$
#364
b11111111000000000000000011111111000000000000000011111111 ""
1{#
b1 +$
b1 1$
#365
b1111111100000000000000001111111100000000000000001111111100000000 ""
b111 X#
1]#
b111 .$
#366
b1 "
b1 ~
b110 X#
0[#
b0 ($
b0 .$
b0 G$
#367
0{#
b0 +$
b0 1$
#368
1{#
b1 +$
b1 1$
#371
0{#
b0 +$
b0 1$
#372
1{#
b1 +$
b1 1$
#375
0{#
b0 +$
b0 1$
#376
1{#
b1 +$
b1 1$
#378
0{#
b0 +$
b0 1$
#379
1{#
b1 +$
b1 1$
#382
0{#
b0 +$
b0 1$
#383
1{#
b1 +$
b1 1$
#384
b1000101100001011010000000 $
b111 D
b11 L
b11 T#
1V#
b10 }#
b1 ($
#385
b10 "
b0 $
b0 D
b0 L
b10 ~
b10 T#
0V#
b0 }#
b0 ($
#386
0{#
b0 +$
b0 1$
#387
1{#
b1 +$
b1 1$
#390
0{#
b0 +$
b0 1$
#391
1{#
b1 +$
b1 1$
#394
0{#
b0 +$
b0 1$
#395
1{#
b1 +$
b1 1$
#398
0{#
b0 +$
b0 1$
#399
1{#
b1 +$
b1 1$
#402
0{#
b0 +$
b0 1$
#403
1{#
b1 +$
b1 1$
#406
0{#
b0 +$
b0 1$
#407
1{#
b1 +$
b1 1$
#410
0{#
b0 +$
b0 1$
#411
1{#
b1 +$
b1 1$
#413
0{#
b0 +$
b0 1$
#414
1{#
b1 +$
b1 1$
#415
b1000101100001011011000000 $
b111 D
b11 L
b11 T#
1V#
b10 }#
b1 ($
b1 W$
#416
b11 "
b0 $
b0 D
b0 L
b11 ~
b10 T#
0V#
b0 }#
b0 ($
#417
b111111110000000000000000111111110000000000000000 ""
b11 X#
1[#
0]#
0{#
b1 ($
b0 +$
b1 .$
b0 1$
#418
b11111111000000000000000011111111000000000000000011111111 ""
1{#
b1 +$
b1 1$
#419
b1111111100000000000000001111111100000000000000001111111100000000 ""
#420
b111111110000000000000000111111110000000000000000 ""
#421
b11111111000000000000000011111111000000000000000011111111 ""
0{#
b0 +$
b0 1$
#422
b1111111100000000000000001111111100000000000000001111111100000000 ""
1{#
b1 +$
b1 1$
#423
b111111110000000000000000111111110000000000000000 ""
#424
b11111111000000000000000011111111000000000000000011111111 ""
b111 X#
1]#
b111 .$
#425
b10 "
b10 ~
b1111111100000000000000001111111100000000000000001111111100000000 ""
b11 X#
0]#
0{#
b0 +$
b1 .$
b0 1$
#426
b111111110000000000000000111111110000000000000000 ""
1{#
b1 +$
b1 1$
#427
b11111111000000000000000011111111000000000000000011111111 ""
#428
b1111111100000000000000001111111100000000000000001111111100000000 ""
#429
b111111110000000000000000111111110000000000000000 ""
0{#
b0 +$
b0 1$
#430
b11111111000000000000000011111111000000000000000011111111 ""
1{#
b1 +$
b1 1$
#431
b1111111100000000000000001111111100000000000000001111111100000000 ""
#432
b111111110000000000000000111111110000000000000000 ""
b111 X#
1]#
b111 .$
#433
b1 "
b1 ~
b110 X#
0[#
0{#
b0 ($
b0 +$
b0 .$
b0 1$
#434
1{#
b1 +$
b1 1$
#437
0{#
b0 +$
b0 1$
#438
1{#
b1 +$
b1 1$
#441
0{#
b0 +$
b0 1$
#442
1{#
b1 +$
b1 1$
#443
b1000101100001011100000000 $
b111 D
b11 L
b11 T#
1V#
b10 }#
b1 ($
#444
b10 "
b0 $
b0 D
b0 L
b10 ~
b11111111000000000000000011111111000000000000000011111111 ""
b10 T#
0V#
b11 X#
1[#
0]#
b0 }#
b1 .$
#445
b1111111100000000000000001111111100000000000000001111111100000000 ""
0{#
b0 +$
b0 1$
#446
b111111110000000000000000111111110000000000000000 ""
1{#
b1 +$
b1 1$
#447
b11111111000000000000000011111111000000000000000011111111 ""
#448
b1111111100000000000000001111111100000000000000001111111100000000 ""
0{#
b0 +$
b0 1$
#449
b111111110000000000000000111111110000000000000000 ""
1{#
b1 +$
b1 1$
#450
b11111111000000000000000011111111000000000000000011111111 ""
#451
b1111111100000000000000001111111100000000000000001111111100000000 ""
b111 X#
1]#
b111 .$
#452
b1 "
b1 ~
b100 X#
0[#
0\#
0{#
b0 ($
b0 +$
b0 .$
b0 1$
#453
b110 X#
1\#
1{#
b1 +$
b1 1$
#456
0{#
b0 +$
b0 1$
#457
1{#
b1 +$
b1 1$
#460
0{#
b0 +$
b0 1$
#461
1{#
b1 +$
b1 1$
#464
0{#
b0 +$
b0 1$
#465
1{#
b1 +$
b1 1$
#468
0{#
b0 +$
b0 1$
#469
1{#
b1 +$
b1 1$
#471
b1000101100001011101000000 $
b111 D
b11 L
b11 T#
1V#
b10 }#
b1 ($
#472
b10 "
b0 $
b0 D
b0 L
b10 ~
b111111110000000000000000111111110000000000000000 ""
b10 T#
0V#
b11 X#
1[#
0]#
0{#
b0 }#
b0 +$
b1 .$
b0 1$
#473
b11111111000000000000000011111111000000000000000011111111 ""
1{#
b1 +$
b1 1$
#474
b1111111100000000000000001111111100000000000000001111111100000000 ""
#475
b111111110000000000000000111111110000000000000000 ""
#476
b11111111000000000000000011111111000000000000000011111111 ""
0{#
b0 +$
b0 1$
#477
b1111111100000000000000001111111100000000000000001111111100000000 ""
1{#
b1 +$
b1 1$
#478
b111111110000000000000000111111110000000000000000 ""
#479
b11111111000000000000000011111111000000000000000011111111 ""
b111 X#
1]#
0{#
b0 +$
b111 .$
b0 1$
#480
b1 "
b1 ~
b110 X#
0[#
1{#
b0 ($
b1 +$
b0 .$
b1 1$
#483
0{#
b0 +$
b0 1$
#484
1{#
b1 +$
b1 1$
#487
0{#
b0 +$
b0 1$
#488
1{#
b1 +$
b1 1$
#491
0{#
b0 +$
b0 1$
#492
1{#
b1 +$
b1 1$
#495
0{#
b0 +$
b0 1$
#496
1{#
b1 +$
b1 1$
#499
0{#
b0 +$
b0 1$
#500
b1111111100000000000000001111111100000000000000001111111100000000 ""
b11 X#
1[#
0]#
1{#
b1 ($
b1 +$
b1 .$
b1 1$
#501
b1000101100001011110000000 $
b111 D
b11 L
b111111110000000000000000111111110000000000000000 ""
b11 T#
1V#
b10 }#
#502
b10 "
b0 $
b0 D
b0 L
b10 ~
b11111111000000000000000011111111000000000000000011111111 ""
b10 T#
0V#
b0 }#
#503
b1111111100000000000000001111111100000000000000001111111100000000 ""
0{#
b0 +$
b0 1$
#504
b111111110000000000000000111111110000000000000000 ""
1{#
b1 +$
b1 1$
#505
b11111111000000000000000011111111000000000000000011111111 ""
#506
b1111111100000000000000001111111100000000000000001111111100000000 ""
#507
b111111110000000000000000111111110000000000000000 ""
b111 X#
1]#
0{#
b0 +$
b111 .$
b0 1$
#508
b1 "
b1 ~
b110 X#
0[#
1{#
b0 ($
b1 +$
b0 .$
b1 1$
#511
0{#
b0 +$
b0 1$
#512
1{#
b1 +$
b1 1$
1g$
#514
0{#
b0 +$
b0 1$
#515
1{#
b1 +$
b1 1$
#518
0{#
b0 +$
b0 1$
#519
1{#
b1 +$
b1 1$
#522
0{#
b0 +$
b0 1$
#523
1{#
b1 +$
b1 1$
#526
0{#
b0 +$
b0 1$
#527
1{#
b1 +$
b1 1$
#529
b1000101100001011111000000 $
b111 D
b11 L
b11 T#
1V#
b10 }#
b1 ($
#530
b10 "
b0 $
b0 D
b0 L
b10 ~
b11111111000000000000000011111111000000000000000011111111 ""
b10 T#
0V#
b11 X#
1[#
0]#
0{#
b0 }#
b0 +$
b1 .$
b0 1$
#531
b1111111100000000000000001111111100000000000000001111111100000000 ""
1{#
b1 +$
b1 1$
#532
b111111110000000000000000111111110000000000000000 ""
#533
b11111111000000000000000011111111000000000000000011111111 ""
#534
b1111111100000000000000001111111100000000000000001111111100000000 ""
0{#
b0 +$
b0 1$
#535
b111111110000000000000000111111110000000000000000 ""
1{#
b1 +$
b1 1$
#536
b11111111000000000000000011111111000000000000000011111111 ""
#537
b1111111100000000000000001111111100000000000000001111111100000000 ""
b111 X#
1]#
b111 .$
#538
b1 "
b1 ~
b110 X#
0[#
0{#
b0 ($
b0 +$
b0 .$
b0 1$
#539
1{#
b1 +$
b1 1$
